(export (version D)
  (design
    (source /home/v/Documents/DIPregulate/DIPbreakout.sch)
    (date "Sat 26 Mar 2016 10:59:33 PM EDT")
    (tool "Eeschema 4.0.2-4+6225~38~ubuntu15.10.1-stable")
    (sheet (number 1) (name /) (tstamps /)
      (title_block
        (title)
        (company)
        (rev)
        (date)
        (source DIPbreakout.sch)
        (comment (number 1) (value ""))
        (comment (number 2) (value ""))
        (comment (number 3) (value ""))
        (comment (number 4) (value "")))))
  (components
    (comp (ref C1)
      (value 0.1uF)
      (footprint Capacitors_SMD:C_0603_HandSoldering)
      (libsource (lib device) (part C))
      (sheetpath (names /) (tstamps /))
      (tstamp 56F618F9))
    (comp (ref R3)
      (value 240)
      (footprint Resistors_SMD:R_0603_HandSoldering)
      (libsource (lib device) (part R))
      (sheetpath (names /) (tstamps /))
      (tstamp 56F61A5E))
    (comp (ref R1)
      (value 750)
      (footprint Resistors_SMD:R_0603_HandSoldering)
      (libsource (lib device) (part R))
      (sheetpath (names /) (tstamps /))
      (tstamp 56F61B37))
    (comp (ref R2)
      (value 390)
      (footprint Resistors_SMD:R_0603_HandSoldering)
      (libsource (lib device) (part R))
      (sheetpath (names /) (tstamps /))
      (tstamp 56F61B99))
    (comp (ref C2)
      (value "1uF 50v ceramic")
      (footprint Capacitors_SMD:C_0805_HandSoldering)
      (libsource (lib device) (part C))
      (sheetpath (names /) (tstamps /))
      (tstamp 56F62AB3))
    (comp (ref U2)
      (value chip_pins)
      (footprint DIP:DIP8)
      (libsource (lib DIPbreakout-cache) (part chip_pins))
      (sheetpath (names /) (tstamps /))
      (tstamp 56F70DAE))
    (comp (ref U1)
      (value LM317)
      (footprint TO_SOT_Packages_SMD:SOT-223)
      (libsource (lib DIPbreakout-cache) (part LM317))
      (sheetpath (names /) (tstamps /))
      (tstamp 56F735A6)))
  (libparts
    (libpart (lib device) (part C)
      (description "Unpolarized capacitor")
      (footprints
        (fp C?)
        (fp C_????_*)
        (fp C_????)
        (fp SMD*_c)
        (fp Capacitor*))
      (fields
        (field (name Reference) C)
        (field (name Value) C))
      (pins
        (pin (num 1) (name ~) (type passive))
        (pin (num 2) (name ~) (type passive))))
    (libpart (lib DIPbreakout-cache) (part LM317)
      (description "1.5A 35V Adjustable Linear Regulator, TO-3")
      (docs http://www.national.com/ds/LM/LM117.pdf)
      (footprints
        (fp TO*))
      (fields
        (field (name Reference) U)
        (field (name Value) LM317)
        (field (name Footprint) SOT-223))
      (pins
        (pin (num 1) (name ADJ) (type input))
        (pin (num 2) (name v_out) (type input))
        (pin (num 3) (name vin) (type power_out))
        (pin (num 4) (name tab_v_out) (type power_out))))
    (libpart (lib device) (part R)
      (description Resistor)
      (footprints
        (fp R_*)
        (fp Resistor_*))
      (fields
        (field (name Reference) R)
        (field (name Value) R))
      (pins
        (pin (num 1) (name ~) (type passive))
        (pin (num 2) (name ~) (type passive))))
    (libpart (lib DIPbreakout-cache) (part chip_pins)
      (footprints
        (fp TO*))
      (fields
        (field (name Reference) U)
        (field (name Value) chip_pins)
        (field (name Footprint) DIP8))
      (pins
        (pin (num 1) (name gnd) (type unspc))
        (pin (num 2) (name 3.3v_?) (type unspc))
        (pin (num 3) (name select_v) (type unspc))
        (pin (num 4) (name 5.15v_?) (type unspc))
        (pin (num 5) (name v_in) (type unspc))
        (pin (num 6) (name gnd) (type unspc))
        (pin (num 7) (name gnd) (type unspc))
        (pin (num 8) (name v_out) (type unspc)))))
  (libraries
    (library (logical DIPbreakout-cache)
      (uri /home/v/Documents/DIPregulate/DIPbreakout-cache.lib))
    (library (logical device)
      (uri /usr/share/kicad/library/device.lib)))
  (nets
    (net (code 1) (name "Net-(C2-Pad1)")
      (node (ref U1) (pin 4))
      (node (ref C2) (pin 1))
      (node (ref U2) (pin 8))
      (node (ref R3) (pin 1)))
    (net (code 2) (name GND)
      (node (ref U2) (pin 7))
      (node (ref U2) (pin 6))
      (node (ref C1) (pin 2))
      (node (ref R1) (pin 2))
      (node (ref R2) (pin 2))
      (node (ref C2) (pin 2))
      (node (ref U2) (pin 1)))
    (net (code 3) (name "Net-(R1-Pad1)")
      (node (ref U2) (pin 4))
      (node (ref R1) (pin 1)))
    (net (code 4) (name "Net-(R2-Pad1)")
      (node (ref R2) (pin 1))
      (node (ref U2) (pin 2)))
    (net (code 5) (name "Net-(U1-Pad2)")
      (node (ref U1) (pin 2)))
    (net (code 6) (name "Net-(C1-Pad1)")
      (node (ref U2) (pin 5))
      (node (ref C1) (pin 1))
      (node (ref U1) (pin 3)))
    (net (code 7) (name "Net-(R3-Pad2)")
      (node (ref U1) (pin 1))
      (node (ref R3) (pin 2))
      (node (ref U2) (pin 3)))))