EESchema Schematic File Version 2
LIBS:power
LIBS:device
LIBS:transistors
LIBS:conn
LIBS:linear
LIBS:regul
LIBS:74xx
LIBS:cmos4000
LIBS:adc-dac
LIBS:memory
LIBS:xilinx
LIBS:microcontrollers
LIBS:dsp
LIBS:microchip
LIBS:analog_switches
LIBS:motorola
LIBS:texas
LIBS:intel
LIBS:audio
LIBS:interface
LIBS:digital-audio
LIBS:philips
LIBS:display
LIBS:cypress
LIBS:siliconi
LIBS:opto
LIBS:atmel
LIBS:contrib
LIBS:valves
LIBS:DIPbreakout-cache
EELAYER 25 0
EELAYER END
$Descr A4 11693 8268
encoding utf-8
Sheet 1 1
Title ""
Date ""
Rev ""
Comp ""
Comment1 ""
Comment2 ""
Comment3 ""
Comment4 ""
$EndDescr
$Comp
L C C1
U 1 1 56F618F9
P 4500 4300
F 0 "C1" H 4525 4400 50  0000 L CNN
F 1 "0.1uF" H 4525 4200 50  0000 L CNN
F 2 "Capacitors_SMD:C_0603_HandSoldering" H 4538 4150 50  0001 C CNN
F 3 "" H 4500 4300 50  0000 C CNN
	1    4500 4300
	1    0    0    -1  
$EndComp
$Comp
L GND #PWR01
U 1 1 56F619F8
P 4500 4550
F 0 "#PWR01" H 4500 4300 50  0001 C CNN
F 1 "GND" H 4500 4400 50  0000 C CNN
F 2 "" H 4500 4550 50  0000 C CNN
F 3 "" H 4500 4550 50  0000 C CNN
	1    4500 4550
	1    0    0    -1  
$EndComp
$Comp
L R R3
U 1 1 56F61A5E
P 5500 4300
F 0 "R3" V 5580 4300 50  0000 C CNN
F 1 "240" V 5500 4300 50  0000 C CNN
F 2 "Resistors_SMD:R_0603_HandSoldering" V 5430 4300 50  0001 C CNN
F 3 "" H 5500 4300 50  0000 C CNN
	1    5500 4300
	1    0    0    -1  
$EndComp
$Comp
L R R1
U 1 1 56F61B37
P 2850 4700
F 0 "R1" V 2930 4700 50  0000 C CNN
F 1 "750" V 2850 4700 50  0000 C CNN
F 2 "Resistors_SMD:R_0603_HandSoldering" V 2780 4700 50  0001 C CNN
F 3 "" H 2850 4700 50  0000 C CNN
	1    2850 4700
	0    -1   1    0   
$EndComp
$Comp
L R R2
U 1 1 56F61B99
P 2850 5050
F 0 "R2" V 2930 5050 50  0000 C CNN
F 1 "390" V 2850 5050 50  0000 C CNN
F 2 "Resistors_SMD:R_0603_HandSoldering" V 2780 5050 50  0001 C CNN
F 3 "" H 2850 5050 50  0000 C CNN
	1    2850 5050
	0    -1   1    0   
$EndComp
$Comp
L GND #PWR02
U 1 1 56F61CB9
P 5800 4650
F 0 "#PWR02" H 5800 4400 50  0001 C CNN
F 1 "GND" H 5800 4500 50  0000 C CNN
F 2 "" H 5800 4650 50  0000 C CNN
F 3 "" H 5800 4650 50  0000 C CNN
	1    5800 4650
	1    0    0    -1  
$EndComp
$Comp
L C C2
U 1 1 56F62AB3
P 5800 4300
F 0 "C2" H 5825 4400 50  0000 L CNN
F 1 "1uF 50v ceramic" H 5825 4200 50  0000 L CNN
F 2 "Capacitors_SMD:C_0805_HandSoldering" H 5838 4150 50  0001 C CNN
F 3 "" H 5800 4300 50  0000 C CNN
	1    5800 4300
	1    0    0    -1  
$EndComp
$Comp
L chip_pins U2
U 1 1 56F70DAE
P 2400 4300
F 0 "U2" H 2200 4500 50  0000 C CNN
F 1 "chip_pins" H 2400 4500 50  0000 L CNN
F 2 "DIP:DIP8" H 2400 4400 50  0000 C CIN
F 3 "" H 2400 4300 50  0000 C CNN
	1    2400 4300
	0    -1   -1   0   
$EndComp
$Comp
L GND #PWR03
U 1 1 56F710A4
P 2350 5000
F 0 "#PWR03" H 2350 4750 50  0001 C CNN
F 1 "GND" H 2350 4850 50  0000 C CNN
F 2 "" H 2350 5000 50  0000 C CNN
F 3 "" H 2350 5000 50  0000 C CNN
	1    2350 5000
	1    0    0    -1  
$EndComp
$Comp
L GND #PWR04
U 1 1 56F713DB
P 3150 4700
F 0 "#PWR04" H 3150 4450 50  0001 C CNN
F 1 "GND" H 3150 4550 50  0000 C CNN
F 2 "" H 3150 4700 50  0000 C CNN
F 3 "" H 3150 4700 50  0000 C CNN
	1    3150 4700
	0    -1   -1   0   
$EndComp
$Comp
L GND #PWR05
U 1 1 56F71425
P 3150 5050
F 0 "#PWR05" H 3150 4800 50  0001 C CNN
F 1 "GND" H 3150 4900 50  0000 C CNN
F 2 "" H 3150 5050 50  0000 C CNN
F 3 "" H 3150 5050 50  0000 C CNN
	1    3150 5050
	0    -1   -1   0   
$EndComp
$Comp
L GND #PWR06
U 1 1 56F71524
P 2500 3800
F 0 "#PWR06" H 2500 3550 50  0001 C CNN
F 1 "GND" H 2500 3650 50  0000 C CNN
F 2 "" H 2500 3800 50  0000 C CNN
F 3 "" H 2500 3800 50  0000 C CNN
	1    2500 3800
	1    0    0    1   
$EndComp
$Comp
L LM317 U1
U 1 1 56F735A6
P 5000 4100
F 0 "U1" H 4800 4300 50  0000 C CNN
F 1 "LM317" H 5000 4300 50  0000 L CNN
F 2 "TO_SOT_Packages_SMD:SOT-223" H 5000 4200 50  0000 C CIN
F 3 "" H 5000 4100 50  0000 C CNN
	1    5000 4100
	1    0    0    -1  
$EndComp
Wire Wire Line
	4500 4450 4500 4550
Wire Wire Line
	5800 3400 5800 4150
Wire Wire Line
	5800 4450 5800 4650
Connection ~ 5800 4050
Wire Wire Line
	2550 4900 2550 4700
Wire Wire Line
	2350 3400 5800 3400
Wire Wire Line
	2350 5000 2350 4700
Wire Wire Line
	2650 4700 2700 4700
Wire Wire Line
	2450 4700 2450 5050
Wire Wire Line
	2450 5050 2700 5050
Wire Wire Line
	3000 4700 3150 4700
Wire Wire Line
	3150 5050 3000 5050
Wire Wire Line
	2450 3900 2550 3900
Wire Wire Line
	2500 3800 2500 3900
Connection ~ 2500 3900
Wire Wire Line
	4500 3900 2650 3900
Wire Wire Line
	2350 3400 2350 3900
Wire Wire Line
	4900 4350 4900 4900
Wire Wire Line
	4900 4900 2550 4900
Wire Wire Line
	5400 4150 5500 4150
Wire Wire Line
	5500 4150 5500 4050
Wire Wire Line
	5500 4050 5800 4050
Wire Wire Line
	5500 4450 4900 4450
Connection ~ 4900 4450
Wire Wire Line
	4500 3700 5400 3700
Wire Wire Line
	5400 3700 5400 4050
Connection ~ 4500 3900
Wire Wire Line
	4500 3700 4500 4150
$EndSCHEMATC
